<?xml version="1.0" standalone="no"?>
<!DOCTYPE svg PUBLIC "-//W3C//DTD SVG 1.1//EN" "http://www.w3.org/Graphics/SVG/1.1/DTD/svg11.dtd" >
<svg xmlns="http://www.w3.org/2000/svg" xmlns:xlink="http://www.w3.org/1999/xlink" version="1.1" viewBox="-10 0 268 256">
   <path fill="currentColor"
d="M12 173v32q2 12 20 24h12q18 -12 20 -24v-26q0 -3 -2 -6l-4 -12q-5 -8 -14 -8q1 -28 22 -72q33 -44 54 -44v114l-14 14l-4 12q-2 3 -2 6v22l10 20l18 8q2 0 12 -4q2 0 12 -20v-36l-6 -12q-5 -8 -14 -8v-120q21 2 54 36q18 28 28 72q2 3 2 6l-14 14l-4 12q-2 3 -2 6v22
l10 20l18 8h4q18 -12 20 -24v-32l-10 -20q-7 -4 -10 -4q-18 -105 -68 -126l-18 -6h-30v2q-15 0 -50 38q-16 12 -32 88q-2 8 -12 16l-6 12v0zM36 169h4q1 0 6 4l6 12v8q-5 14 -14 20q-9 -6 -14 -20v-8l6 -12q5 -4 6 -4zM220 169h6l10 10v20l-10 10h-1q-1 0 -9 -4h-4v-6
q-4 -13 -4 -14l6 -12q5 -4 6 -4zM124 173h4q10 4 12 4v26l-10 10h-4l-8 -8l-4 -12q-2 -1 -2 -2t2 -2l4 -12q5 -4 6 -4z" />
</svg>
