<?xml version="1.0" standalone="no"?>
<!DOCTYPE svg PUBLIC "-//W3C//DTD SVG 1.1//EN" "http://www.w3.org/Graphics/SVG/1.1/DTD/svg11.dtd" >
<svg xmlns="http://www.w3.org/2000/svg" xmlns:xlink="http://www.w3.org/1999/xlink" version="1.1" viewBox="-10 0 265 256">
  <g transform="matrix(1 0 0 -1 0 220)">
   <path fill="currentColor"
d="M84 207v-32h-52v-2q5 -5 5 -6h4l7 4h40v-20h-26l-14 8v-52h7l7 8h18l-36 -38q-14 -10 -20 -10v-4q34 10 60 36v-36h4q10 4 12 4v36h6l10 -10q4 -2 8 -2v-4q1 -4 6 -8h1l5 6v9l-8 7l-24 8q-4 5 -4 6h18l12 -4h6v36q2 0 4 1v2l-10 9h-4l-8 -8h-18v20h52v2l-14 14h-1
l-11 -12h-26v28h-4q-10 4 -12 4zM180 203v-40h-24v-8h6q15 4 18 4v-33q-1 0 -6 -15q-13 -30 -62 -44v-8q-6 0 -12 -2q-4 -10 -56 -28q-6 -1 -20 -6h-4v-4h14l24 8h6v-8h84v-4q-4 0 -8 -2l-9 -10q-2 0 -3 2q-6 1 -20 6h-4l10 -16l10 -8h2l4 4q2 6 2 12h22q7 12 26 16v2l-6 6
h-38v12h-4l-20 8v4h22q35 -23 66 -26q2 -2 4 -2t4 2l16 4l4 4v2q-8 0 -16 2l-32 4l-48 14v2l4 4l-4 4v2l22 8h6v8q9 0 14 8q2 6 12 20q3 11 10 42v6h20q0 -3 -4 -50v-22h-4l-8 -4h-20v-4h4q14 -6 20 -12h2q7 8 10 8l4 6l4 12v58l4 7v4l-2 1l-4 4h-3l-7 -4h-16v35l-6 5h-10v0
zM60 147h28v-28h-28v28v0zM100 147h24v-28h-24v28v0zM112 47q0 -6 2 -12l6 -6v-2h-52v4q6 0 12 2l32 14v0zM80 7v-30l4 -4l8 -4l1 -2q2 0 11 4h74l6 6l-10 10q-2 4 -2 8h-8q0 -6 -2 -12l-14 -8h-28l-24 6l-4 4v10h8v8h-4l-8 4h-8v0zM58 3h-1l-21 -22v-6h19l9 10v18h-6v0z
M184 3v-7l18 -17h10v16h-4l-24 8v0z" />
  </g>

</svg>
